<svg width="24" height="24" viewBox="0 0 24 24" fill="none" xmlns="http://www.w3.org/2000/svg">
<rect x="0.5" y="0.5" width="23" height="23" rx="3.5" fill="white" stroke="#E8E8E8"/>
<path d="M15.08 12.88H12.104V15.792H11.096V12.88H8.12V11.936H11.096V9.008H12.104V11.936H15.08V12.88Z" fill="black"/>
</svg>
